name	number
zéro	0
un	1
une	1
deux	2
trois	3
quatre	4
cinq	5
six	6
sept	7
huit	8
neuf	9
dix	10
onze	11
douze	12
treize	13
quatorze	14
quinze	15
seize	16
dix-sept	17
dix-huit	18
dix-neuf	19
vingt	20
vingt-et-un	21
vingt-deux	22
vingt-trois	23
vingt-quatre	24
vingt-cinq	25
vingt-six	26
vingt-sept	27
vingt-huit	28
vingt-neuf	29
trente	30
quarante	40
cinquante	50
soixante	60
soixante-dix 	70
septante	70
soixante-et-onze	71
soixante-douze	72
soixante-treize	73
soixante-quatorze	74
soixante-quinze	75
soixante-seize	76
soixante-dix-sept	77
soixante-dix-huit	78
soixante-dix-neuf	79
quatre-vingts	80
huitante	80
octante	80
quatre-vingt-dix	90
nonante	90
quatre-vingt-onze	91
quatre-vingt-douze	92
quatre-vingt-treize	93
quatre-vingt-quatorze	94
quatre-vingt-quinze	95
quatre-vingt-seize	96
quatre-vingt-dix-sept	97
quatre-vingt-dix-huit	98
quatre-vingt-dix-neuf	99
cent	100
deux-cents	200
mille	1000
un-million	1000000