name	number
tus	0
neen	0
zéro	0
sero	0
dara	0
benn	1
ñaar	2
yaar	2
ñett	3
ñatt	3
yett	3
yatt	3
ñeent	4
ñenent	4
juróom	5
juróom-benn	6
juróom-ñaar	7
juróom-ñett	8
juróom-ñeent	9
fukk	10
fukk ak benn	11
fukk ak ñaar	12
fukk ak ñett	13
fukk ak ñeent	14
fukk ak juróom	15
fukk ak juróom-benn	16
fukk ak juróom-ñaar	17
fukk ak juróom-ñett	18
fukk ak juróom-ñeent	19
ñaar-fukk	20
ñaar-fukk ak juróom-benn	26
ñett-fukk	30
fanweer	30
ñeent-fukk	40
juróom-fukk	50
juróom-benn-fukk	60
juróom-benn-fukk ak juróom-benn	66
juróom-ñaar-fukk	70
juróom-ñett-fukk	80
juróom-ñeent-fukk	90
téeméer	100
téeméer ak benn	101
téeméer ak juróom-benn	106
téeméer ak fukk	110
ñaari téeméer	200
ñetti téeméer	300
ñeenti téeméer	400
juróomi téeméer	500
juróom-benni téeméer	600
juróom-ñaari téeméer	700
juróom-ñetti téeméer	800
juróom-ñeenti téeméer	900
junni	1000
junne	1000
junni ak téeméer	1100
junni ak juróom-benni téeméer	1600
junni ak juróom-ñeenti téeméer ak ñeent-fukk ak juróom	1945
junni ak juróom-ñeenti téeméer ak juróom-benn-fukk ak juróom-ñeent	1969
ñaari junni	2000
ñetti junni	3000
ñeenti junni	4000
juróomi junni	5000
juróom-benni junni	6000
juróom-ñaari junni	7000
juróom-ñetti junni	8000
juróom-ñeenti junni	9000
fukki junni	10000
téeméeri junni	100000
tamndareet	1000000
million	1000000